<svg width="199" height="62" viewBox="0 0 199 62" fill="none" xmlns="http://www.w3.org/2000/svg">
<path d="M71.1963 37V8.5625H81.1572C84.6077 8.5625 87.2249 9.22656 89.0088 10.5547C90.7926 11.8698 91.6846 13.8034 91.6846 16.3555C91.6846 17.7487 91.3265 18.9792 90.6104 20.0469C89.8942 21.1016 88.8981 21.8763 87.6221 22.3711C89.0804 22.7357 90.2262 23.4714 91.0596 24.5781C91.9059 25.6849 92.3291 27.0391 92.3291 28.6406C92.3291 31.375 91.4567 33.4453 89.7119 34.8516C87.9671 36.2578 85.4801 36.974 82.251 37H71.1963ZM77.0557 24.6172V32.293H82.0752C83.4554 32.293 84.5296 31.9674 85.2979 31.3164C86.0791 30.6523 86.4697 29.7409 86.4697 28.582C86.4697 25.9779 85.1221 24.6562 82.4268 24.6172H77.0557ZM77.0557 20.4766H81.3916C84.3473 20.4245 85.8252 19.2461 85.8252 16.9414C85.8252 15.6523 85.4476 14.7279 84.6924 14.168C83.9502 13.5951 82.7718 13.3086 81.1572 13.3086H77.0557V20.4766ZM106.099 37.3906C103 37.3906 100.474 36.4401 98.5205 34.5391C96.5804 32.638 95.6104 30.1055 95.6104 26.9414V26.3945C95.6104 24.2721 96.0205 22.3776 96.8408 20.7109C97.6611 19.0312 98.82 17.7422 100.317 16.8438C101.828 15.9323 103.547 15.4766 105.474 15.4766C108.364 15.4766 110.636 16.388 112.29 18.2109C113.957 20.0339 114.79 22.6185 114.79 25.9648V28.2695H101.333C101.515 29.6497 102.062 30.7565 102.974 31.5898C103.898 32.4232 105.063 32.8398 106.47 32.8398C108.644 32.8398 110.343 32.0521 111.567 30.4766L114.341 33.582C113.494 34.7799 112.349 35.7174 110.903 36.3945C109.458 37.0586 107.856 37.3906 106.099 37.3906ZM105.454 20.0469C104.334 20.0469 103.423 20.4245 102.72 21.1797C102.03 21.9349 101.587 23.0156 101.392 24.4219H109.243V23.9727C109.217 22.7227 108.879 21.7591 108.228 21.082C107.576 20.3919 106.652 20.0469 105.454 20.0469ZM123.208 15.8672L123.384 18.3086C124.894 16.4206 126.919 15.4766 129.458 15.4766C131.698 15.4766 133.364 16.1341 134.458 17.4492C135.552 18.7643 136.112 20.7305 136.138 23.3477V37H130.493V23.4844C130.493 22.2865 130.233 21.4206 129.712 20.8867C129.191 20.3398 128.325 20.0664 127.114 20.0664C125.526 20.0664 124.334 20.7435 123.54 22.0977V37H117.896V15.8672H123.208ZM150.161 37.3906C147.062 37.3906 144.536 36.4401 142.583 34.5391C140.643 32.638 139.673 30.1055 139.673 26.9414V26.3945C139.673 24.2721 140.083 22.3776 140.903 20.7109C141.724 19.0312 142.882 17.7422 144.38 16.8438C145.89 15.9323 147.609 15.4766 149.536 15.4766C152.427 15.4766 154.699 16.388 156.353 18.2109C158.019 20.0339 158.853 22.6185 158.853 25.9648V28.2695H145.396C145.578 29.6497 146.125 30.7565 147.036 31.5898C147.961 32.4232 149.126 32.8398 150.532 32.8398C152.707 32.8398 154.406 32.0521 155.63 30.4766L158.403 33.582C157.557 34.7799 156.411 35.7174 154.966 36.3945C153.521 37.0586 151.919 37.3906 150.161 37.3906ZM149.517 20.0469C148.397 20.0469 147.485 20.4245 146.782 21.1797C146.092 21.9349 145.649 23.0156 145.454 24.4219H153.306V23.9727C153.28 22.7227 152.941 21.7591 152.29 21.082C151.639 20.3919 150.715 20.0469 149.517 20.0469ZM163.442 37V20.0078H160.298V15.8672H163.442V14.8906C163.468 12.2344 164.282 10.1901 165.884 8.75781C167.498 7.3125 169.771 6.58984 172.7 6.58984C174.458 6.58984 176.593 6.97396 179.106 7.74219L178.286 12.4102C177.01 12.0326 176.021 11.7917 175.317 11.6875C174.614 11.5703 173.859 11.5117 173.052 11.5117C170.422 11.5117 169.106 12.6771 169.106 15.0078V15.8672H173.267V20.0078H169.106V37H163.442ZM181.743 37H176.079V15.8672H181.743V37ZM193.169 10.6719V15.8672H196.782V20.0078H193.169V30.5547C193.169 31.3359 193.319 31.8958 193.618 32.2344C193.918 32.5729 194.491 32.7422 195.337 32.7422C195.962 32.7422 196.515 32.6966 196.997 32.6055V36.8828C195.89 37.2214 194.751 37.3906 193.579 37.3906C189.621 37.3906 187.603 35.3919 187.524 31.3945V20.0078H184.438V15.8672H187.524V10.6719H193.169Z" fill="white"/>
<path d="M107.993 54.4648C107.35 54.2799 106.881 54.0534 106.587 53.7852C106.295 53.5143 106.149 53.181 106.149 52.7852C106.149 52.3372 106.328 51.9674 106.685 51.6758C107.044 51.3815 107.51 51.2344 108.083 51.2344C108.474 51.2344 108.821 51.3099 109.126 51.4609C109.433 51.612 109.67 51.8203 109.837 52.0859C110.006 52.3516 110.091 52.6419 110.091 52.957H109.337C109.337 52.6133 109.228 52.3438 109.009 52.1484C108.79 51.9505 108.481 51.8516 108.083 51.8516C107.713 51.8516 107.424 51.9336 107.216 52.0977C107.01 52.2591 106.907 52.4844 106.907 52.7734C106.907 53.0052 107.005 53.2018 107.2 53.3633C107.398 53.5221 107.733 53.668 108.204 53.8008C108.678 53.9336 109.048 54.0807 109.313 54.2422C109.582 54.401 109.78 54.5872 109.907 54.8008C110.037 55.0143 110.103 55.2656 110.103 55.5547C110.103 56.0156 109.923 56.3854 109.563 56.6641C109.204 56.9401 108.724 57.0781 108.122 57.0781C107.731 57.0781 107.367 57.0039 107.028 56.8555C106.69 56.7044 106.428 56.4987 106.243 56.2383C106.061 55.9779 105.97 55.6823 105.97 55.3516H106.724C106.724 55.6953 106.85 55.9674 107.103 56.168C107.358 56.3659 107.698 56.4648 108.122 56.4648C108.518 56.4648 108.821 56.3841 109.032 56.2227C109.243 56.0612 109.349 55.8411 109.349 55.5625C109.349 55.2839 109.251 55.069 109.056 54.918C108.86 54.7643 108.506 54.6133 107.993 54.4648ZM113.563 56.582C113.282 56.9128 112.869 57.0781 112.325 57.0781C111.875 57.0781 111.531 56.9479 111.294 56.6875C111.06 56.4245 110.941 56.0365 110.938 55.5234V52.7734H111.661V55.5039C111.661 56.1445 111.922 56.4648 112.442 56.4648C112.994 56.4648 113.362 56.2591 113.544 55.8477V52.7734H114.267V57H113.579L113.563 56.582ZM118.938 54.9336C118.938 55.5768 118.791 56.0951 118.497 56.4883C118.203 56.8815 117.804 57.0781 117.302 57.0781C116.789 57.0781 116.385 56.9154 116.091 56.5898V58.625H115.368V52.7734H116.028L116.063 53.2422C116.358 52.8776 116.767 52.6953 117.29 52.6953C117.798 52.6953 118.199 52.8867 118.493 53.2695C118.79 53.6523 118.938 54.1849 118.938 54.8672V54.9336ZM118.216 54.8516C118.216 54.375 118.114 53.9987 117.911 53.7227C117.708 53.4466 117.429 53.3086 117.075 53.3086C116.638 53.3086 116.31 53.5026 116.091 53.8906V55.9102C116.307 56.2956 116.638 56.4883 117.083 56.4883C117.429 56.4883 117.704 56.3516 117.907 56.0781C118.113 55.8021 118.216 55.3932 118.216 54.8516ZM123.431 54.9336C123.431 55.5768 123.284 56.0951 122.989 56.4883C122.695 56.8815 122.297 57.0781 121.794 57.0781C121.281 57.0781 120.877 56.9154 120.583 56.5898V58.625H119.86V52.7734H120.521L120.556 53.2422C120.85 52.8776 121.259 52.6953 121.782 52.6953C122.29 52.6953 122.691 52.8867 122.985 53.2695C123.282 53.6523 123.431 54.1849 123.431 54.8672V54.9336ZM122.708 54.8516C122.708 54.375 122.606 53.9987 122.403 53.7227C122.2 53.4466 121.922 53.3086 121.567 53.3086C121.13 53.3086 120.802 53.5026 120.583 53.8906V55.9102C120.799 56.2956 121.13 56.4883 121.575 56.4883C121.922 56.4883 122.196 56.3516 122.399 56.0781C122.605 55.8021 122.708 55.3932 122.708 54.8516ZM124.161 54.8477C124.161 54.4336 124.242 54.0612 124.403 53.7305C124.567 53.3997 124.794 53.1445 125.083 52.9648C125.375 52.7852 125.707 52.6953 126.079 52.6953C126.655 52.6953 127.119 52.8945 127.474 53.293C127.83 53.6914 128.009 54.2214 128.009 54.8828V54.9336C128.009 55.3451 127.929 55.7148 127.771 56.043C127.614 56.3685 127.389 56.6224 127.095 56.8047C126.803 56.987 126.467 57.0781 126.087 57.0781C125.514 57.0781 125.049 56.8789 124.692 56.4805C124.338 56.082 124.161 55.5547 124.161 54.8984V54.8477ZM124.888 54.9336C124.888 55.4023 124.996 55.7786 125.212 56.0625C125.431 56.3464 125.722 56.4883 126.087 56.4883C126.454 56.4883 126.746 56.3451 126.962 56.0586C127.178 55.7695 127.286 55.3659 127.286 54.8477C127.286 54.3841 127.175 54.0091 126.954 53.7227C126.735 53.4336 126.444 53.2891 126.079 53.2891C125.722 53.2891 125.435 53.431 125.216 53.7148C124.997 53.9987 124.888 54.4049 124.888 54.9336ZM130.958 53.4219C130.849 53.4036 130.73 53.3945 130.603 53.3945C130.129 53.3945 129.807 53.5964 129.638 54V57H128.915V52.7734H129.618L129.63 53.2617C129.867 52.8841 130.203 52.6953 130.638 52.6953C130.778 52.6953 130.885 52.7135 130.958 52.75V53.4219ZM132.802 51.75V52.7734H133.591V53.332H132.802V55.9531C132.802 56.1224 132.837 56.25 132.907 56.3359C132.978 56.4193 133.097 56.4609 133.267 56.4609C133.35 56.4609 133.465 56.4453 133.61 56.4141V57C133.42 57.0521 133.235 57.0781 133.056 57.0781C132.733 57.0781 132.489 56.9805 132.325 56.7852C132.161 56.5898 132.079 56.3125 132.079 55.9531V53.332H131.31V52.7734H132.079V51.75H132.802ZM140.001 54.9336C140.001 55.5794 139.853 56.099 139.556 56.4922C139.259 56.8828 138.86 57.0781 138.36 57.0781C137.826 57.0781 137.414 56.8893 137.122 56.5117L137.087 57H136.423V51H137.146V53.2383C137.437 52.8763 137.84 52.6953 138.353 52.6953C138.866 52.6953 139.268 52.8893 139.56 53.2773C139.854 53.6654 140.001 54.1966 140.001 54.8711V54.9336ZM139.278 54.8516C139.278 54.3594 139.183 53.9792 138.993 53.7109C138.803 53.4427 138.53 53.3086 138.173 53.3086C137.696 53.3086 137.354 53.5299 137.146 53.9727V55.8008C137.367 56.2435 137.712 56.4648 138.181 56.4648C138.527 56.4648 138.797 56.3307 138.989 56.0625C139.182 55.7943 139.278 55.3906 139.278 54.8516ZM142.251 55.9414L143.235 52.7734H144.009L142.31 57.6523C142.047 58.3555 141.629 58.707 141.056 58.707L140.919 58.6953L140.649 58.6445V58.0586L140.845 58.0742C141.09 58.0742 141.28 58.0247 141.415 57.9258C141.553 57.8268 141.666 57.6458 141.755 57.3828L141.915 56.9531L140.407 52.7734H141.196L142.251 55.9414Z" fill="white"/>
<g clip-path="url(#clip0)">
<path d="M155.572 57.5595C154.727 57.846 153.843 57.9989 152.953 58.013C151.521 58.013 150.485 57.643 149.763 56.9269C149.042 56.2345 148.646 55.1846 148.657 54.0029C148.669 51.3295 150.567 49.8018 153.139 49.8018C154.152 49.8018 154.932 50.0048 155.316 50.1957L154.944 51.6518C154.513 51.4608 153.978 51.3056 153.116 51.3056C151.638 51.3056 150.52 52.1649 150.52 53.9074C150.52 55.5663 151.533 56.5448 152.988 56.5448C153.396 56.5448 153.722 56.4973 153.861 56.4256V54.7428H152.651V53.3226H155.573L155.572 57.5595Z" fill="white"/>
<path d="M156.128 54.0075C156.128 53.1482 156.104 52.5872 156.081 52.086H157.606L157.664 53.1601H157.711C158.002 52.3126 158.701 51.9546 159.248 51.9546C159.372 51.9495 159.497 51.9575 159.62 51.9785V53.6853C159.463 53.6539 159.303 53.638 159.143 53.6376C158.491 53.6376 158.049 53.9956 157.932 54.5564C157.908 54.6903 157.896 54.8263 157.897 54.9625V57.9223H156.128L156.128 54.0075Z" fill="white"/>
<path d="M161.812 55.5824C161.87 56.3347 162.592 56.6924 163.418 56.6924C163.951 56.6989 164.482 56.6183 164.99 56.4535L165.223 57.6828C164.641 57.9215 163.931 58.041 163.163 58.041C161.23 58.041 160.124 56.8952 160.124 55.0692C160.124 53.5892 161.021 51.9541 163 51.9541C164.839 51.9541 165.538 53.4222 165.538 54.8662C165.538 55.1062 165.518 55.3457 165.479 55.5823L161.812 55.5824ZM163.896 54.3411C163.896 53.8996 163.709 53.1596 162.894 53.1596C162.15 53.1596 161.847 53.8521 161.801 54.3411H163.896Z" fill="white"/>
<path d="M169.652 57.921L169.547 57.3362H169.512C169.139 57.8017 168.557 58.0524 167.882 58.0524C166.73 58.0524 166.043 57.1931 166.043 56.262C166.043 54.7463 167.37 54.0184 169.384 54.0304V53.9468C169.384 53.6365 169.221 53.1948 168.348 53.1948C167.796 53.2006 167.255 53.3527 166.776 53.6365L166.45 52.4669C166.846 52.2401 167.626 51.9536 168.662 51.9536C170.56 51.9536 171.165 53.0994 171.165 54.472V56.5009C171.165 57.0618 171.188 57.5988 171.247 57.9211L169.652 57.921ZM169.442 55.1642C168.511 55.1522 167.789 55.3791 167.789 56.083C167.789 56.5484 168.092 56.7754 168.488 56.7754C168.69 56.7769 168.887 56.7131 169.052 56.5933C169.217 56.4734 169.341 56.3033 169.407 56.1071C169.431 56.0054 169.443 55.9012 169.442 55.7967V55.1642Z" fill="white"/>
<path d="M174.243 50.4165V52.0876H175.512V53.4243H174.243V55.5368C174.243 56.241 174.406 56.5632 174.941 56.5632C175.117 56.5635 175.292 56.5476 175.465 56.5154L175.477 57.8879C175.244 57.9834 174.825 58.0431 174.324 58.0431C173.754 58.0431 173.277 57.8402 172.998 57.5418C172.672 57.1956 172.509 56.6349 172.509 55.8113V53.4239H171.752V52.0872H172.509V50.8222L174.243 50.4165Z" fill="white"/>
<path d="M176.019 49.9722C176.813 49.8543 177.614 49.7985 178.417 49.8052C179.907 49.8052 180.873 50.0796 181.63 50.6645C182.445 51.2852 182.957 52.2757 182.957 53.6959C182.957 55.2356 182.41 56.2978 181.653 56.9542C180.827 57.6584 179.569 57.9928 178.032 57.9928C177.359 57.9983 176.687 57.9585 176.019 57.8734L176.019 49.9722ZM177.8 56.5363C178.004 56.5683 178.21 56.5803 178.417 56.5722C180.023 56.5841 181.071 55.6771 181.071 53.7555C181.083 52.0843 180.128 51.2014 178.603 51.2014C178.334 51.1951 178.064 51.2191 177.8 51.2731V56.5363Z" fill="white"/>
<path d="M187.073 57.902L186.968 57.317H186.933C186.56 57.7826 185.978 58.0332 185.303 58.0332C184.151 58.0332 183.464 57.174 183.464 56.243C183.464 54.7273 184.791 53.9993 186.805 54.0112V53.9275C186.805 53.6174 186.642 53.1757 185.769 53.1757C185.217 53.1815 184.675 53.3336 184.197 53.6174L183.871 52.4478C184.267 52.2209 185.047 51.9346 186.083 51.9346C187.981 51.9346 188.586 53.0803 188.586 54.4529V56.4818C188.586 57.0427 188.609 57.5798 188.667 57.9021L187.073 57.902ZM186.863 55.1451C185.932 55.1331 185.21 55.36 185.21 56.0639C185.21 56.5294 185.513 56.7563 185.908 56.7563C186.11 56.7578 186.308 56.6941 186.473 56.5742C186.638 56.4543 186.762 56.2843 186.828 56.088C186.852 55.9864 186.864 55.8822 186.863 55.7777V55.1451Z" fill="white"/>
<path d="M195.245 55.6392V58.05H194.702V57.062H193.765V58.05H193.222V55.6392H193.765V56.5729H194.702V55.6392H195.245Z" fill="white"/>
<path d="M195.696 58.0496V55.6387H196.756C196.862 55.6377 196.967 55.6621 197.063 55.71C197.154 55.7559 197.237 55.8191 197.306 55.8964C197.374 55.9731 197.429 56.0617 197.467 56.158C197.505 56.2516 197.524 56.3519 197.525 56.4533C197.525 56.5261 197.516 56.5986 197.498 56.669C197.481 56.7371 197.455 56.8028 197.422 56.8643C197.389 56.9247 197.349 56.9802 197.301 57.029C197.253 57.0778 197.199 57.1195 197.14 57.1529L197.657 58.0494H197.044L196.594 57.2718H196.24V58.0494L195.696 58.0496ZM196.24 56.7864H196.737C196.769 56.7857 196.802 56.7769 196.83 56.7607C196.859 56.7444 196.884 56.7213 196.902 56.6932C196.951 56.6236 196.975 56.5392 196.972 56.4535C196.976 56.3668 196.947 56.2817 196.892 56.216C196.871 56.1895 196.845 56.1679 196.815 56.1527C196.786 56.1374 196.753 56.1289 196.72 56.1277H196.24V56.7864Z" fill="white"/>
<path d="M192.743 53.2612C192.736 53.3268 192.733 53.3927 192.733 53.4586L192.415 57.0567C192.414 57.2315 192.381 57.4045 192.315 57.5659C192.25 57.7272 192.155 57.8737 192.034 57.9971C191.914 58.1205 191.771 58.2183 191.614 58.2849C191.457 58.3515 191.289 58.3856 191.119 58.3853C190.775 58.386 190.446 58.2464 190.203 57.9973C189.959 57.7481 189.822 57.4099 189.821 57.0567L189.793 56.7329C190.148 55.9331 190.614 55.1902 191.176 54.5273C191.62 54.0126 192.151 53.5838 192.743 53.2612Z" fill="white"/>
<path d="M195.373 49.9402L193.293 52.0735C193.069 52.3021 192.904 52.585 192.815 52.8962C191.639 53.4512 190.569 54.2163 189.653 55.1559L189.503 53.4591C189.503 53.2016 189.454 52.9465 189.358 52.7087C189.261 52.4709 189.121 52.255 188.943 52.0735L186.864 49.9402C186.799 49.8749 186.748 49.7971 186.713 49.7114C186.678 49.6256 186.66 49.5335 186.66 49.4405C186.66 49.3475 186.678 49.2555 186.713 49.1697C186.748 49.0839 186.799 49.0062 186.864 48.9409C186.927 48.8749 187.003 48.8224 187.087 48.7866C187.171 48.7508 187.26 48.7324 187.351 48.7324C187.441 48.7324 187.531 48.7508 187.615 48.7866C187.698 48.8224 187.774 48.8749 187.838 48.9409L190.183 51.3438L190.385 51.5495C190.484 51.6501 190.601 51.7293 190.73 51.7823C190.858 51.8353 190.996 51.8611 191.135 51.8581C191.097 51.9039 190.956 52.0623 190.6 52.3209C191.079 52.1897 191.512 51.9224 191.851 51.5496L191.852 51.5482L192.053 51.3439L194.398 48.941C194.462 48.8749 194.538 48.8225 194.621 48.7867C194.705 48.7509 194.795 48.7325 194.885 48.7325C194.976 48.7325 195.065 48.7509 195.149 48.7867C195.233 48.8225 195.309 48.8749 195.373 48.941C195.437 49.0062 195.488 49.084 195.523 49.1698C195.558 49.2555 195.576 49.3476 195.576 49.4406C195.576 49.5335 195.558 49.6256 195.523 49.7113C195.488 49.7971 195.437 49.8749 195.373 49.9402Z" fill="white"/>
<path d="M191.119 51.047C191.314 51.0473 191.507 51.0081 191.687 50.9317C191.867 50.8554 192.031 50.7432 192.169 50.6018C192.306 50.4603 192.416 50.2923 192.491 50.1073C192.566 49.9223 192.604 49.7239 192.605 49.5235C192.604 49.3231 192.566 49.1248 192.491 48.9398C192.416 48.7548 192.307 48.5867 192.169 48.4452C192.031 48.3038 191.867 48.1916 191.687 48.1152C191.507 48.0389 191.314 47.9997 191.119 48C190.924 47.9997 190.731 48.0388 190.551 48.1152C190.371 48.1916 190.207 48.3037 190.069 48.4452C189.931 48.5867 189.822 48.7547 189.747 48.9397C189.672 49.1247 189.633 49.3231 189.633 49.5235C189.633 49.7239 189.672 49.9223 189.747 50.1073C189.822 50.2923 189.931 50.4603 190.069 50.6018C190.207 50.7433 190.371 50.8554 190.551 50.9318C190.731 51.0082 190.924 51.0473 191.119 51.047Z" fill="white"/>
</g>
<g clip-path="url(#clip1)">
<path d="M50.0138 5H10.6698C4.96578 5 0.341797 9.64592 0.341797 15.3769V51.623C0.341797 57.3541 4.96578 62 10.6698 62H50.0138C55.7178 62 60.3418 57.3541 60.3418 51.623V15.3769C60.3418 9.64592 55.7178 5 50.0138 5Z" fill="white"/>
<path d="M9.20215 21.0362L30.337 12.584V54.4265L25.5166 51.916C21.6782 49.9096 18.3608 47.0282 15.8297 43.5025C13.2987 39.9767 11.6243 35.9045 10.9408 31.6119L9.20215 21.0362Z" fill="#E97A19"/>
<path d="M51.4821 21.0362L30.3369 12.584V54.4265L36.0631 51.6335C39.5885 49.9112 42.6488 47.3605 44.9849 44.1976C47.321 41.0347 48.864 37.3526 49.4832 33.4634L51.4821 21.0362Z" fill="url(#paint0_linear)"/>
</g>
<defs>
<linearGradient id="paint0_linear" x1="63" y1="64.5" x2="15.5" y2="10.5" gradientUnits="userSpaceOnUse">
<stop stop-color="#D05B07"/>
<stop offset="1" stop-color="#E87818"/>
</linearGradient>
<clipPath id="clip0">
<rect width="49" height="14" fill="white" transform="translate(148.657 48)"/>
</clipPath>
<clipPath id="clip1">
<rect width="60" height="57" fill="white" transform="translate(0.341797 5)"/>
</clipPath>
</defs>
</svg>
