<svg id="icon-plus" xmlns="http://www.w3.org/2000/svg" width="24" height="24" viewBox="0 0 24 24">
  <path id="Path_281" data-name="Path 281" d="M0,0H24V24H0Z" fill="none" opacity="0"/>
  <line id="Line_152" data-name="Line 152" y2="14" transform="translate(12 5)" fill="none" stroke="#121212" stroke-linecap="round" stroke-linejoin="round" stroke-width="2"/>
  <line id="Line_153" data-name="Line 153" x2="14" transform="translate(5 12)" fill="none" stroke="#121212" stroke-linecap="round" stroke-linejoin="round" stroke-width="2"/>
</svg>
