<svg width="24" height="24" viewBox="0 0 24 24" fill="none" xmlns="http://www.w3.org/2000/svg">
<g clip-path="url(#clip0)">
<path d="M23.0002 8.00002C22.735 7.9999 22.4806 7.89447 22.293 7.7069C22.1055 7.51933 22 7.26497 21.9999 6.99971V2.99987C21.9994 2.73485 21.8939 2.48082 21.7065 2.29342C21.5191 2.10602 21.2651 2.00052 21.0001 2.00002H17.0002C16.8671 2.00291 16.7347 1.97917 16.6108 1.93021C16.487 1.88124 16.3741 1.80804 16.279 1.71489C16.1838 1.62174 16.1081 1.51051 16.0565 1.38775C16.0049 1.26498 15.9783 1.13313 15.9783 0.999946C15.9783 0.866761 16.0049 0.734917 16.0565 0.612147C16.1081 0.489378 16.1838 0.378155 16.279 0.285004C16.3741 0.191853 16.487 0.118648 16.6108 0.069685C16.7347 0.0207217 16.8671 -0.00301474 17.0002 -0.00013182H21.0001C21.7955 0.000736706 22.558 0.317086 23.1204 0.879507C23.6829 1.44193 23.9992 2.20449 24.0001 2.99987V6.99971C24 7.26489 23.8946 7.51918 23.7071 7.70674C23.5197 7.89429 23.2654 7.99978 23.0002 8.00002Z" fill="#E55635"/>
<path d="M0.999844 8.00002C0.734664 7.99978 0.480423 7.89429 0.292956 7.70674C0.105489 7.51918 0.00012409 7.26489 0 6.99971L0 2.99987C0.000868526 2.20449 0.317218 1.44193 0.879639 0.879507C1.44206 0.317086 2.20462 0.000736706 3 -0.00013182H6.99984C7.133 -0.00301474 7.26539 0.0207217 7.38925 0.069685C7.5131 0.118648 7.62594 0.191853 7.72113 0.285004C7.81632 0.378155 7.89195 0.489378 7.94358 0.612147C7.99521 0.734917 8.02181 0.866761 8.02181 0.999946C8.02181 1.13313 7.99521 1.26498 7.94358 1.38775C7.89195 1.51051 7.81632 1.62174 7.72113 1.71489C7.62594 1.80804 7.5131 1.88124 7.38925 1.93021C7.26539 1.97917 7.133 2.00291 6.99984 2.00002H3C2.73498 2.00052 2.48095 2.10602 2.29355 2.29342C2.10615 2.48082 2.00065 2.73485 2.00016 2.99987V6.99971C2.00003 7.26497 1.8946 7.51933 1.70703 7.7069C1.51947 7.89447 1.2651 7.9999 0.999844 8.00002Z" fill="#E55635"/>
<path d="M21.0001 23.9999H17.0002C16.8671 24.0028 16.7347 23.9791 16.6108 23.9301C16.487 23.8811 16.3741 23.8079 16.279 23.7148C16.1838 23.6216 16.1081 23.5104 16.0565 23.3877C16.0049 23.2649 15.9783 23.133 15.9783 22.9999C15.9783 22.8667 16.0049 22.7348 16.0565 22.6121C16.1081 22.4893 16.1838 22.3781 16.279 22.2849C16.3741 22.1918 16.487 22.1186 16.6108 22.0696C16.7347 22.0206 16.8671 21.9969 17.0002 21.9998H21.0001C21.2651 21.9993 21.5191 21.8938 21.7065 21.7064C21.8939 21.519 21.9994 21.265 21.9999 20.9999V17.0001C21.997 16.867 22.0208 16.7346 22.0697 16.6107C22.1187 16.4869 22.1919 16.374 22.285 16.2788C22.3782 16.1836 22.4894 16.108 22.6122 16.0564C22.7349 16.0047 22.8668 15.9781 23 15.9781C23.1332 15.9781 23.265 16.0047 23.3878 16.0564C23.5105 16.108 23.6218 16.1836 23.7149 16.2788C23.8081 16.374 23.8813 16.4869 23.9302 16.6107C23.9792 16.7346 24.0029 16.867 24.0001 17.0001V20.9999C23.9992 21.7953 23.6828 22.5579 23.1204 23.1203C22.558 23.6827 21.7954 23.9991 21.0001 23.9999Z" fill="#E55635"/>
<path d="M6.99983 23.9999H2.99999C2.20461 23.9991 1.44205 23.6827 0.879629 23.1203C0.317208 22.5579 0.000858776 21.7953 -9.74943e-06 20.9999V17.0001C-0.00289267 16.867 0.0208437 16.7346 0.0698071 16.6107C0.11877 16.4869 0.191975 16.374 0.285126 16.2788C0.378277 16.1836 0.4895 16.108 0.612269 16.0564C0.735039 16.0047 0.866883 15.9781 1.00007 15.9781C1.13325 15.9781 1.2651 16.0047 1.38787 16.0564C1.51064 16.108 1.62186 16.1836 1.71501 16.2788C1.80816 16.374 1.88137 16.4869 1.93033 16.6107C1.97929 16.7346 2.00303 16.867 2.00015 17.0001V20.9999C2.00064 21.265 2.10614 21.519 2.29354 21.7064C2.48094 21.8938 2.73497 21.9993 2.99999 21.9998H6.99983C7.13299 21.9969 7.26538 22.0206 7.38924 22.0696C7.51309 22.1186 7.62593 22.1918 7.72112 22.2849C7.81631 22.3781 7.89194 22.4893 7.94357 22.6121C7.9952 22.7348 8.0218 22.8667 8.0218 22.9999C8.0218 23.133 7.9952 23.2649 7.94357 23.3877C7.89194 23.5104 7.81631 23.6216 7.72112 23.7148C7.62593 23.8079 7.51309 23.8811 7.38924 23.9301C7.26538 23.9791 7.13299 24.0028 6.99983 23.9999Z" fill="#E55635"/>
<path d="M18.4884 17.3345L14.8439 16.06V11.4419H9.06562V16.06L5.42109 17.3345C4.72118 17.5793 4.1147 18.0356 3.68562 18.6403C3.25654 19.2449 3.02611 19.9681 3.02625 20.7095V21.0349H20.8856V20.7095C20.8856 19.9678 20.6548 19.2445 20.2253 18.6397C19.7958 18.035 19.1888 17.5789 18.4884 17.3345Z" fill="url(#paint0_linear)"/>
<path d="M14.9691 13.2335L14.0995 13.8321C13.4934 14.2492 12.7756 14.474 12.0398 14.4773C11.3041 14.4805 10.5843 14.2621 9.97453 13.8503L9.05671 13.2306C8.56019 12.8954 8.15351 12.4435 7.87237 11.9145C7.59123 11.3854 7.44421 10.7955 7.44421 10.1964V6.99674C7.44415 6.39849 7.56196 5.80609 7.79089 5.25339C8.01983 4.70068 8.35542 4.19849 8.77849 3.77551C9.20156 3.35253 9.70382 3.01704 10.2566 2.78822C10.8093 2.55939 11.4017 2.44171 12 2.44189C12.5982 2.44183 13.1905 2.55961 13.7431 2.78849C14.2958 3.01737 14.7979 3.35287 15.2209 3.77584C15.6439 4.19881 15.9794 4.70096 16.2082 5.2536C16.4371 5.80625 16.5549 6.39857 16.5548 6.99674V10.2189C16.5545 10.8123 16.41 11.3967 16.1338 11.9218C15.8575 12.4469 15.4578 12.8971 14.9691 13.2335Z" fill="url(#paint1_linear)"/>
<path d="M12.0469 12.2385C14.1342 12.2385 15.8264 10.5463 15.8264 8.45897C15.8264 6.37159 14.1342 4.67944 12.0469 4.67944C9.95949 4.67944 8.26733 6.37159 8.26733 8.45897C8.26733 10.5463 9.95949 12.2385 12.0469 12.2385Z" fill="#E55635"/>
<path d="M14.0044 7.23562L12.6422 8.59828L14.0044 9.96093C14.0531 10.009 14.0919 10.0662 14.1184 10.1293C14.1449 10.1924 14.1587 10.2601 14.1589 10.3285C14.1592 10.3969 14.1459 10.4647 14.1198 10.528C14.0938 10.5913 14.0554 10.6488 14.0071 10.6972C13.9587 10.7456 13.9012 10.784 13.838 10.8101C13.7747 10.8362 13.7069 10.8495 13.6385 10.8493C13.5701 10.8491 13.5023 10.8354 13.4392 10.8089C13.3761 10.7824 13.3189 10.7437 13.2708 10.695L11.9063 9.33234L10.5469 10.695C10.4493 10.7912 10.3177 10.8449 10.1807 10.8444C10.0436 10.8439 9.91236 10.7893 9.8155 10.6923C9.71863 10.5954 9.66404 10.4641 9.66363 10.3271C9.66322 10.1901 9.71703 10.0584 9.81331 9.96093L11.1755 8.59828L9.81331 7.23562C9.76305 7.18793 9.72286 7.13065 9.69509 7.06717C9.66733 7.00369 9.65256 6.9353 9.65166 6.86602C9.65075 6.79674 9.66373 6.72798 9.68982 6.6638C9.71592 6.59961 9.7546 6.54131 9.8036 6.49232C9.85259 6.44332 9.91089 6.40464 9.97508 6.37854C10.0393 6.35245 10.108 6.33947 10.1773 6.34038C10.2466 6.34128 10.315 6.35605 10.3785 6.38381C10.4419 6.41158 10.4992 6.45177 10.5469 6.50203L11.9063 7.86468L13.2689 6.50203C13.3166 6.45177 13.3739 6.41158 13.4374 6.38381C13.5009 6.35605 13.5693 6.34128 13.6385 6.34038C13.7078 6.33947 13.7766 6.35245 13.8408 6.37854C13.9049 6.40464 13.9632 6.44332 14.0122 6.49232C14.0612 6.54131 14.0999 6.59961 14.126 6.6638C14.1521 6.72798 14.1651 6.79674 14.1642 6.86602C14.1633 6.9353 14.1485 7.00369 14.1207 7.06717C14.093 7.13065 14.0528 7.18793 14.0025 7.23562H14.0044Z" fill="white"/>
</g>
<defs>
<linearGradient id="paint0_linear" x1="3.02625" y1="16.2377" x2="20.8833" y2="16.2377" gradientUnits="userSpaceOnUse">
<stop stop-color="#FFE9C2"/>
<stop offset="1" stop-color="#FBB03B"/>
</linearGradient>
<linearGradient id="paint1_linear" x1="1742.02" y1="3977.86" x2="3306.45" y2="1293.16" gradientUnits="userSpaceOnUse">
<stop stop-color="#FFE9C2"/>
<stop offset="1" stop-color="#FBB03B"/>
</linearGradient>
<clipPath id="clip0">
<rect width="24" height="24" fill="white"/>
</clipPath>
</defs>
</svg>
