<svg id="icon-download" xmlns="http://www.w3.org/2000/svg" width="24" height="24" viewBox="0 0 24 24">
  <rect id="Rectangle_76" data-name="Rectangle 76" width="24" height="24" fill="none" opacity="0"/>
  <g id="Group_38" data-name="Group 38" transform="translate(0 1)">
    <path id="Path_75" data-name="Path 75" d="M21,15v4a2,2,0,0,1-2,2H5a2,2,0,0,1-2-2V15" transform="translate(0 -1)" fill="none" stroke="#121212" stroke-linecap="round" stroke-linejoin="round" stroke-width="2"/>
    <path id="Path_76" data-name="Path 76" d="M7,10l5,5,5-5" transform="translate(0 -1)" fill="none" stroke="#121212" stroke-linecap="round" stroke-linejoin="round" stroke-width="2"/>
    <line id="Line_65" data-name="Line 65" y1="12" transform="translate(12 2)" fill="none" stroke="#121212" stroke-linecap="round" stroke-linejoin="round" stroke-width="2"/>
  </g>
</svg>
