<svg xmlns="http://www.w3.org/2000/svg" fill="none" width="24" height="24" viewBox="0 0 28.027 28.027">
<rect width="24" height="24" fill="none" stroke="none"/>
  <path id="language" d="M13.792,0A13.792,13.792,0,1,0,27.583,13.792,13.792,13.792,0,0,0,13.792,0ZM25.719,18.623,21.8,19.3a20.581,20.581,0,0,0,.722-5.049h4.133a12.787,12.787,0,0,1-.933,4.372ZM.931,14.251H5.064A20.581,20.581,0,0,0,5.786,19.3l-3.922-.677a12.787,12.787,0,0,1-.933-4.372ZM1.864,8.96l3.922-.677a20.581,20.581,0,0,0-.722,5.049H.931A12.787,12.787,0,0,1,1.864,8.96ZM14.251,7.381a31.626,31.626,0,0,1,4.928.45l1.623.28a19.733,19.733,0,0,1,.8,5.221H14.251Zm5.085-.456a32.586,32.586,0,0,0-5.085-.463V.945c2.636.253,4.925,2.666,6.222,6.178Zm-6-.463a32.581,32.581,0,0,0-5.085.463l-1.138.2C8.407,3.609,10.7,1.2,13.332.943ZM8.4,7.831a31.618,31.618,0,0,1,4.928-.45v5.951H5.983a19.733,19.733,0,0,1,.8-5.221Zm-2.421,6.42h7.349V20.2a31.626,31.626,0,0,1-4.928-.45l-1.623-.28a19.733,19.733,0,0,1-.8-5.221Zm2.264,6.407a32.7,32.7,0,0,0,5.085.466V26.64c-2.636-.253-4.925-2.667-6.222-6.178Zm6,.466a32.693,32.693,0,0,0,5.085-.466l1.138-.2c-1.3,3.513-3.587,5.927-6.222,6.179Zm4.928-1.372a31.618,31.618,0,0,1-4.928.45V14.251H21.6a19.733,19.733,0,0,1-.8,5.221Zm3.34-6.42A20.581,20.581,0,0,0,21.8,8.283l3.922.677a12.787,12.787,0,0,1,.933,4.372Zm2.735-5.385L21.495,7.3a12.677,12.677,0,0,0-3.658-5.724,12.933,12.933,0,0,1,7.417,6.372ZM9.746,1.574A12.677,12.677,0,0,0,6.089,7.3l-3.76.649A12.933,12.933,0,0,1,9.746,1.574ZM2.329,19.636l3.76.649a12.677,12.677,0,0,0,3.658,5.724,12.933,12.933,0,0,1-7.417-6.372Zm15.508,6.372a12.677,12.677,0,0,0,3.658-5.724l3.76-.649a12.933,12.933,0,0,1-7.417,6.372Zm0,0" transform="translate(0.222 0.222)" fill="inherit" stroke="inherit" stroke-width="0.444"/>
</svg>
